Classification,Year,Period,Period Desc.,Aggregate Level,Is Leaf Code,Trade Flow Code,Trade Flow,Reporter Code,Reporter,Reporter ISO,Partner Code,Partner,Partner ISO,2nd Partner Code,2nd Partner,2nd Partner ISO,Customs Proc. Code,Customs,Mode of Transport Code,Mode of Transport,Commodity Code,Commodity,Qty Unit Code,Qty Unit,Qty,Alt Qty Unit Code,Alt Qty Unit,Alt Qty,Netweight (kg),Gross weight (kg),Trade Value (US$),CIF Trade Value (US$),FOB Trade Value (US$),Flag
H5,2020,2020,2020,4,0,2,Export,40,Austria,AUT,276,Germany,DEU,,,,,,,,1201,"Soya beans, whether or not broken",8,Weight in kilograms,78276500,,,,78276500,,44666631,,,0
H5,2020,2020,2020,4,0,2,Export,56,Belgium,BEL,276,Germany,DEU,,,,,,,,1201,"Soya beans, whether or not broken",8,Weight in kilograms,2815680,,,,2815680,,1509697,,,0
H5,2020,2020,2020,4,0,2,Export,76,Brazil,BRA,276,Germany,DEU,,,,,,,,1201,"Soya beans, whether or not broken",8,Weight in kilograms,33506000,,,,33499800,,11052832,,,0
H5,2020,2020,2020,4,0,2,Export,124,Canada,CAN,276,Germany,DEU,,,,,,,,1201,"Soya beans, whether or not broken",8,Weight in kilograms,61291140,,,,61291140,,24854295,,,0
H5,2020,2020,2020,4,0,2,Export,156,China,CHN,276,Germany,DEU,,,,,,,,1201,"Soya beans, whether or not broken",8,Weight in kilograms,161154,,,,161154,,155718,,,0
H5,2020,2020,2020,4,0,2,Export,191,Croatia,HRV,276,Germany,DEU,,,,,,,,1201,"Soya beans, whether or not broken",8,Weight in kilograms,40289607,,,,40289607,,15878658,,,0
H5,2020,2020,2020,4,0,2,Export,203,Czechia,CZE,276,Germany,DEU,,,,,,,,1201,"Soya beans, whether or not broken",8,Weight in kilograms,7604150,,,,7604150,,3452947,,,0
H5,2020,2020,2020,4,0,2,Export,233,Estonia,EST,276,Germany,DEU,,,,,,,,1201,"Soya beans, whether or not broken",8,Weight in kilograms,455780,,,,455780,,186222,,,0
H5,2020,2020,2020,4,0,2,Export,251,France,FRA,276,Germany,DEU,,,,,,,,1201,"Soya beans, whether or not broken",8,Weight in kilograms,7758216,,,,7758216,,6513145,,,0
H5,2020,2020,2020,4,0,2,Export,348,Hungary,HUN,276,Germany,DEU,,,,,,,,1201,"Soya beans, whether or not broken",1,No Quantity,0,,,,0,,19057090,,,0
H5,2020,2020,2020,4,0,2,Export,376,Israel,ISR,276,Germany,DEU,,,,,,,,1201,"Soya beans, whether or not broken",8,Weight in kilograms,1223,,,,1223,,1000,,,6
H5,2020,2020,2020,4,0,2,Export,381,Italy,ITA,276,Germany,DEU,,,,,,,,1201,"Soya beans, whether or not broken",8,Weight in kilograms,1220485,,,,1220485,,907673,,,0
H5,2020,2020,2020,4,0,2,Export,410,Rep. of Korea,KOR,276,Germany,DEU,,,,,,,,1201,"Soya beans, whether or not broken",8,Weight in kilograms,203,,,,203,,1660,,,0
H5,2020,2020,2020,4,0,2,Export,440,Lithuania,LTU,276,Germany,DEU,,,,,,,,1201,"Soya beans, whether or not broken",8,Weight in kilograms,1646758,,,,1646758,,1182177,,,0
H5,2020,2020,2020,4,0,2,Export,442,Luxembourg,LUX,276,Germany,DEU,,,,,,,,1201,"Soya beans, whether or not broken",8,Weight in kilograms,310,,,,310,,975,,,0
H5,2020,2020,2020,4,0,2,Export,528,Netherlands,NLD,276,Germany,DEU,,,,,,,,1201,"Soya beans, whether or not broken",8,Weight in kilograms,967746725,,,,967746725,,394278577,,,0
H5,2020,2020,2020,4,0,2,Export,579,Norway,NOR,276,Germany,DEU,,,,,,,,1201,"Soya beans, whether or not broken",8,Weight in kilograms,9,,,,9,,224,,,0
H5,2020,2020,2020,4,0,2,Export,616,Poland,POL,276,Germany,DEU,,,,,,,,1201,"Soya beans, whether or not broken",8,Weight in kilograms,2420195,,,,2420195,,1129896,,,0
H5,2020,2020,2020,4,0,2,Export,642,Romania,ROU,276,Germany,DEU,,,,,,,,1201,"Soya beans, whether or not broken",8,Weight in kilograms,33131558,,,,33131558,,17193786,,,0
H5,2020,2020,2020,4,0,2,Export,688,Serbia,SRB,276,Germany,DEU,,,,,,,,1201,"Soya beans, whether or not broken",8,Weight in kilograms,80400845,,,,80400845,,33994913,,,0
H5,2020,2020,2020,4,0,2,Export,699,India,IND,276,Germany,DEU,,,,,,,,1201,"Soya beans, whether or not broken",8,Weight in kilograms,2511,,,,2511,,3431,,,0
H5,2020,2020,2020,4,0,2,Export,703,Slovakia,SVK,276,Germany,DEU,,,,,,,,1201,"Soya beans, whether or not broken",8,Weight in kilograms,18599222,,,,18599222,,9514124,,,0
H5,2020,2020,2020,4,0,2,Export,704,Viet Nam,VNM,276,Germany,DEU,,,,,,,,1201,"Soya beans, whether or not broken",8,Weight in kilograms,35550,,,,35550,,14220,,,6
H5,2020,2020,2020,4,0,2,Export,724,Spain,ESP,276,Germany,DEU,,,,,,,,1201,"Soya beans, whether or not broken",8,Weight in kilograms,45359,,,,45359,,163122,,,0
H5,2020,2020,2020,4,0,2,Export,752,Sweden,SWE,276,Germany,DEU,,,,,,,,1201,"Soya beans, whether or not broken",8,Weight in kilograms,14000,,,,14000,,60056,,,0
H5,2020,2020,2020,4,0,2,Export,757,Switzerland,CHE,276,Germany,DEU,,,,,,,,1201,"Soya beans, whether or not broken",8,Weight in kilograms,87366,,,,87366,,90661,,,0
H5,2020,2020,2020,4,0,2,Export,792,Turkey,TUR,276,Germany,DEU,,,,,,,,1201,"Soya beans, whether or not broken",8,Weight in kilograms,9,,,,9,,10,,,0
H5,2020,2020,2020,4,0,2,Export,804,Ukraine,UKR,276,Germany,DEU,,,,,,,,1201,"Soya beans, whether or not broken",8,Weight in kilograms,39446479,,,,39446479,,20603686,,,0
H5,2020,2020,2020,4,0,2,Export,826,United Kingdom,GBR,276,Germany,DEU,,,,,,,,1201,"Soya beans, whether or not broken",8,Weight in kilograms,469333,,,,469333,,445631,,,0
H5,2020,2020,2020,4,0,2,Export,842,USA,USA,276,Germany,DEU,,,,,,,,1201,"Soya beans, whether or not broken",8,Weight in kilograms,53250,,,,53250,,36476,,,0
H4,2020,2020,2020,4,0,2,Export,818,Egypt,EGY,276,Germany,DEU,,,,,,,,1201,"Soya beans, whether or not broken",8,Weight in kilograms,131649,,,,131649,,52659,,,6
