row;name;ship distance;car distance
2;Argentina;6056;0
3;Australia;18255;0
4;Austria;0;963
5;Belgium;0;488
6;Brazil;4333;0
7;Canada;5115;0
8;China;19207;0
9;Denmark;0;452
10;France;0;796
11;Hungary;0;1139
12;Italy;0;1685
13;Japan;22065;0
14;Malaysia;16290;0
15;Other Asia, nes;17422;0
16;Netherlands;0;356
17;Norway;0;928
18;Paraguay;11376;0
19;Viet Nam;17775;0
20;Spain;1742;0
21;Switzerland;0;844
22;Thailand;17364;0
23;United Kingdom;644;0
24;USA;6285;0
25;Uruguay;11938;0
26;Colombia;10028;0
27;Israel;6723;0
28;Rep. of Korea;20774;0
29;New Zealand;21314;0
30;Niger;5518;0
31;South Africa;11794;0
32;Tunisia;4391;0
33;Bolivia (Plurinational State of);12906;0
34;Singapore;15890;0
35;Ghana;7709;0
36;Sri Lanka;13015;0
37;Greece;5420;0
38;Kenya;12167;0
39;Latvia;1276;0
40;Poland;0;931
41;Sweden;698;0
42;Egypt;6333;0
43;Czechia;0;703
44;India;12223;0
45;Slovakia;0;1216
46;Turkey;6048;0
47;Ukraine;0;1982
48;Chile;15590;0
49;Lithuania;987;0
50;Luxembourg;0;484
51;Malta;0;2716
52;Philippines;18368;0
53;Serbia;0;1646
54;China, Hong Kong SAR;18610;0
55;Nicaragua;9354;0
56;Peru;11954;0
57;Cambodia;17108;0
58;Costa Rica;9493;0
59;Croatia;0;1360
60;Mexico;9841;0
61;Romania;0;1781
62;Russian Federation;1766;0
63;United Arab Emirates;0;6344
64;United Rep. of Tanzania;12484;0
65;Venezuela;8393;0
66;Benin;8050;0
67;Dominican Rep.;7578;0
68;Estonia;1477;0
69;Djibouti;9174;0
70;Honduras;9372;0
71;Indonesia;18027;0
72;Iran;11913;0
73;Rep. of Moldova;0;1841
74;Slovenia;0;1237
75;Ecuador;10873;0
76;Finland;1390;0
77;Bangladesh;15340;0
78;Mali;5200;0
79;Bulgaria;0;2187
80;Portugal;2126;0
81;Togo;7909;0
82;Ireland;1518;0
83;Lebanon;6800;0
