"Country", "Risk Factor"
Argentina,0.29
Australia,0.23
Austria,0.17
Belgium,0.17
Bolivia (Plurinational State of),0.42
Brazil,0.49
Bulgaria,0.25
Canada,0.24
Chile,0.36
China,0.41
Colombia,0.54
Costa Rica,0.32
Croatia,0.23
Czechia,0.11
Denmark,0.11
Ecuador,0.45
France,0.22
Ghana,0.43
Hungary,0.18
India,0.52
Indonesia,0.46
Iran,0.47
Israel,0.24
Italy,0.24
Japan,0.22
Rep. of Korea,0.19
Lithuania,0.12
Luxembourg,0.09
Malaysia,0.31
Rep. of Moldova,0.28
Netherlands,0.13
Nicaragua,0.47
Norway,0.1
Peru,0.48
Philippines,0.53
Poland,0.16
Romania,0.24
Russian Federation,0.35
Serbia,0.3
Singapore,0.05
Slovakia,0.15
South Africa,0.45
Spain,0.21
Sweden,0.14
Switzerland,0.14
Thailand,0.38
Turkey,0.49
Ukraine,0.45
United Kingdom,0.19
USA,0.34
Uruguay,0.18
Viet Nam,0.37