"","Partner","VperKg.1991","VperKg.1992","VperKg.1993","VperKg.1994","VperKg.1995","VperKg.1996","VperKg.1997","VperKg.1998","VperKg.1999","VperKg.2000","VperKg.2001","VperKg.2002","VperKg.2003","VperKg.2004","VperKg.2005","VperKg.2006","VperKg.2007","VperKg.2008","VperKg.2009","VperKg.2010","VperKg.2011","VperKg.2012","VperKg.2013","VperKg.2014","VperKg.2015","VperKg.2016","VperKg.2017","VperKg.2018","VperKg.2019","VperKg.2020"
"1","World",0.241697164865826,0.238526074962275,0.243105849341155,0.262462940926528,0.24759426588523,0.289723478157747,0.296589743067731,0.256155629020112,0.210743204155787,0.20842819055515,0.200857790639983,0.208210575144336,0.259271257370349,0.302993491941219,0.265163450817493,0.267356522770492,0.333609956258915,0.531858718039252,0.458094562413317,0.440031575486293,0.539427642743289,0.576108326053518,0.580657462644597,0.536894618657377,0.421090997546871,0.407910756735646,0.4083092502723,0.406763535958024,0.382918592998791,NA
"2","Argentina",0.23625047869942,0.238255059437773,0.241926014563322,0.263260512012717,0.23823755746377,0.30235381882812,0.315375401273192,0.253158472946993,0.197874237521443,0.186356680910971,0.209356693636981,0.203409232911438,0.259353886333958,0.285254215192872,0.261926930921344,0.255221204427056,0.325314995978775,0.451971845591424,0.456046381879525,0.387288660908286,0.441778232984848,0.466173773390771,0.551626027054275,0.489232675967095,0.364419288461171,0.355797513247844,0.33987793704915,0.355507674389685,0.338016653429426,0.352382568535411
"3","Austria",0.542124542124542,0.416413588530263,0.342417987255376,0.316578708612679,0.405886590511475,0.31037894852743,0.384042837078652,0.387380083772463,0.352942923943431,0.264982404538053,0.283234353586112,0.284651378467246,0.270225737353765,0.370259126778254,0.380020374772327,0.556150314819183,0.621462978073754,0.822422167924129,0.845609359857913,0.751573219829116,0.790562940318829,0.747706299561893,0.936469229467564,1.02870718649783,0.714214151346742,0.572256580633758,0.608061003810911,0.742477394794046,0.653401982563797,0.678172583607399
"4","Brazil",0.241510829722473,0.244226598589298,0.245177861939083,0.269955169476284,0.245348386952647,0.301475090888146,0.313007908453558,0.257889072211857,0.206392581298989,0.204777948474187,0.196475712782877,0.201228284759751,0.243278562963177,0.309537871629571,0.266236099127731,0.264014960954143,0.330204620878643,0.524182964722471,0.462293083300019,0.441346994544404,0.539323177686918,0.567947807194367,0.591119053343232,0.559537277652548,0.432666816269232,0.405275162751253,0.401913973968085,0.419006211457099,0.377525425165203,0.409864057187196
"5","Canada",0.436456996148909,0.523396880415945,0.315980134385042,0.216545479853383,0.312668773340994,0.304892566093295,0.274672736206249,0.241837127938521,0.197283621426028,0.23948580987879,0.206049164193003,0.482736572890026,0.535585042219542,0.290860583132768,0.239854464035824,0.265321069571586,0.378189257314783,0.521304862567273,0.902166350775548,0.412233103655863,0.51101358355895,0.615783735162498,0.544970211004843,0.453045249681176,0.371276597758886,0.411503247099069,0.378536493058279,0.380139977511149,0.366913126478105,0.407248783881606
"6","China",0.291616038882138,0.888888888888889,0.727272727272727,0.888888888888889,1.64102564102564,2.51831578947368,0.452815384615385,0.320754716981132,0.523675949367089,0.535714285714286,0.472358992834554,0.37538844002486,0.597887165655203,0.751458576429405,0.591465990705534,0.578175895765472,0.623789228981015,0.957364194029285,0.810441564017382,0.830149834936318,0.716893887258659,0.845692379657006,1.19469128214959,1.37402050190833,1.41402154322372,1.53865224573911,1.0660191432799,1.53964148292183,1.5974389935087,1.53800696199691
"7","France",1.50946560724543,1.52439024390244,0.738384783286561,0.599736453840003,0.435577752120458,0.377681768756796,0.468285714285714,0.6,0.274071405596655,0.245307869608166,0.146494593651901,0.694864048338369,1,0.986301369863014,0.579710144927536,0.371449987507287,0.798265895953757,0.910143480849865,1.01974282452141,0.654367462523594,0.632157051418548,0.87097164873498,1.01462757058042,0.958948421193949,0.685428106414614,0.619263267202983,0.881479988460757,0.575003248908476,0.620609222893067,0.856197176481851
"8","China, Hong Kong SAR",2.51256281407035,3.34075723830735,NA,NA,NA,NA,NA,NA,NA,NA,NA,NA,NA,NA,2.22222222222222,NA,NA,NA,NA,NA,NA,NA,0.610294117647059,2.93548387096774,0.445876288659794,0.394415357766143,0.427509761934752,1.13263062596999,0.375040102662817,0.386323787258913
"9","Hungary",0.426712182632814,0.738491835562485,0.363636363636364,NA,NA,0.466150081566069,0.577,0.48,0.412769251427714,0.254491017964072,0.520991401112797,0.37037037037037,0.8,0.577080627435308,NA,NA,0.449656145300652,0.484750820060862,0.514201511608939,0.658500371195249,0.848688520754364,0.527071220930233,0.75091864102464,0.698368766207528,0.868902001435292,0.453574140974588,0.436134396035728,0.549182448756917,0.395591386876212,0.404254226106471
"10","Italy",0.266022755177212,NA,NA,2.84495021337127,2.85714285714286,NA,0.372715277777778,0.266666666666667,0.536426016497555,0.208930075821398,0.277077363896848,0.408533131961488,0.443371378402107,0.54468085106383,0.60753560483144,0.564273070851074,0.676234715347164,0.862094411576668,0.83715426398395,0.746261821585323,0.755745767992424,0.682422876777585,0.759223188099776,0.824778087429835,0.683307501005678,0.478962340375064,0.498201227626237,0.49227814016708,0.481353658057048,0.46276077736431
"11","Japan",5.96171948540948,3.34368282780033,0.283920628410991,0.763358778625954,5.5,26.713567839196,0.296226576538034,6,4.89914285714286,1.83183183183183,1.1482254697286,1.3031914893617,4.48275862068965,12.8571428571429,1.34285714285714,5.21739130434783,1.00917431192661,1.94550352258599,2.73983241365216,1.338006738398,0.649739773690828,2.211629032968,5.54044214985438,5.63274898373984,3.54850474106492,11.2666340029397,7.63346567024755,10.6502808988764,8.49741905208822,0.513303137057541
"12","Rep. of Korea",1.72972972972973,1.06685633001422,1.6849199663016,1.185536455246,10.0502512562814,6.644,3.462,3.5,5.51689189189189,0.625,1.2,NA,NA,0.27972027972028,10,10,0.571428571428571,5.04398148148148,1.29396348776263,4.021,0.473113420695888,NA,NA,1.33887043189369,5.30670470756063,6.2,2.81944444444444,7.33888888888889,8.40555555555556,4.40277777777778
"13","Other Asia, nes",2,NA,2.66666666666667,3.3500837520938,NA,20.5463917525773,NA,NA,NA,1.5,1.6,1.76470588235294,2.5,10,NA,NA,1.9047619047619,2.19255460895547,2.14905069485222,NA,NA,0.210526315789474,NA,0.751592356687898,0.432752613240418,0.397905759162304,NA,NA,NA,NA
"14","Netherlands",0.21011673151751,0.255591054313099,0.258310544669962,0.261571014148837,0.263285036925365,0.235634908862435,0.271799925233645,0.244873328337561,0.224431667743972,0.23322127264101,0.226970103950508,0.218462477534363,0.242309771172936,0.29074045876704,0.269964197590213,0.445618312339158,0.7309766327142,0.44509545831686,0.798871599966227,1.29118279569892,0.775978148071697,0.653096274457996,0.719370819383007,0.992772328342798,0.924253856472166,0.828728820632668,0.393719056698338,0.429934809176892,0.414579610961139,0.405148682574084
"15","Paraguay",0.241209294156273,0.245933073252026,0.23479842847173,0.279236091568089,0.244057437784917,0.30522947836949,0.31675230159019,NA,0.201129655334667,0.179978797806868,0.185134150142044,0.233093986440627,0.250282811496663,0.272074573837522,0.261800858159583,0.259141094948112,0.324172023806099,0.575485078180446,0.404119685217179,0.45799249655783,0.545898839687943,0.55536248511661,0.574420779846977,0.549651047459224,0.425796823972247,0.409760753998574,0.385204826342693,0.54356846473029,0.769230769230769,0.833333333333333
"16","India",0.30188679245283,NA,0.744324525493115,NA,NA,NA,NA,NA,NA,NA,NA,NA,NA,NA,NA,0.449561403508772,NA,0.825814450814451,0.964635473340588,1.05858701895462,1.22460339549123,0.796697247706422,0.830365955021492,0.71762273610289,0.729907391295942,1.52855061661985,1.06259167699215,4.09651076466221,0.490554680238353,0.483992602465575
"17","Singapore",1.23076923076923,2,NA,1.11358574610245,1.11358574610245,1.43685121107266,NA,0.258064516129032,NA,2.5,NA,NA,NA,NA,NA,NA,NA,NA,NA,0.333333333333333,NA,NA,1.125,NA,0.501580611169652,0.506646971935007,1.1256038647343,0.727888960619755,1.50203134068485,NA
"18","Switzerland",0.73482428115016,0.762873490146217,0.906474820143885,0.954128440366973,1.23964558005358,1.26068983268983,0.761376506024096,0.656626506024096,0.579958878504673,0.563936781609195,0.509466437177281,0.59462915601023,0.801204819277108,0.88681446907818,1.15657142857143,1.5378221113882,2.30344827586207,1.71337137980692,2.07595547113445,1.64790029604181,2.69654803811349,0.611438485705801,1.37696110036536,1.97702151080127,2.145618513975,2.77672634907986,1.49469255826238,2.06934867980527,2.97902652399707,3.18839818643077
"19","Thailand",0.641975308641975,0.508474576271186,NA,NA,1.43061516452074,NA,1.2985,1.33333333333333,0.851299326275265,NA,NA,0.674157303370786,1.05263157894737,0.125,3.33333333333333,NA,NA,1.20257731958763,15.1728395061728,2.70966026195067,1.85203602927378,3.2885852997629,1.93847566574839,0.590170116151766,0.757255706367564,1.2925070121544,0.368192451317634,1.335287539619,1.66156849983729,1.8983219390926
"20","USA",0.244076643686446,0.236574234305408,0.242135511280907,0.258884464741444,0.248622744189206,0.288496072951414,0.287149133106043,0.257079477805522,0.205791020698137,0.199247311170228,0.198980567444313,0.209047270696104,0.277673907886089,0.307322004510783,0.260429331768425,0.270315840015517,0.329969773670883,0.526227747797583,0.430354249771078,0.439059529701089,0.542986571071795,0.587533886482598,0.580299010657233,0.504467444053628,0.401918438939881,0.396524825637127,0.400386087107845,0.390179930142588,0.37157728776937,0.387606914550206
"23","Australia",NA,0.32,NA,NA,1.73010380622837,NA,NA,NA,NA,0.558139534883721,0.7,0.454545454545455,NA,NA,NA,NA,NA,NA,1.12054965646471,NA,NA,NA,0.5,0.558441558441558,NA,NA,NA,NA,NA,NA
"28","Denmark",NA,0.506329113924051,0.210398457549459,0.327485380116959,0.24989824989825,0.330690689034509,0.301542699724518,0.231958762886598,0.353895450534821,0.606060606060606,0.198886237072395,0.212765957446809,NA,0.365853658536585,0.223030592164112,0.501996577296064,0.251002221484565,0.502083728877919,0.14408,1.22908558888076,12.2045159615884,0.208736383442266,0.599282448019272,0.623663102195755,0.446661794419844,0.371925507179108,0.556813197291885,0.500888843481815,0.441898217039582,0.45134556695808
"32","Israel",NA,0.520484794408506,0.263983353520296,0.30207637762727,NA,NA,NA,NA,NA,NA,NA,NA,NA,0.909090909090909,0.909090909090909,NA,10,NA,8.6,NA,NA,1.06642066420664,0.785628019323672,0.572708476912474,0.214285714285714,1,4.2739898989899,5.71382978723404,4.96323529411765,3.08256880733945
"40","United Kingdom",NA,0.6,0.36516672062156,0.397205202388321,0.610526315789474,0.52081635212239,1.731,1.6,0.235913312693498,NA,0.191056910569106,0.336787564766839,NA,NA,0.5,NA,NA,NA,10.6583904109589,1.92395238478243,1.82288457738047,2.18312705228593,2.80044851337531,3.28958210712184,2.33295259851513,2.56943150046598,2.11811722912966,4.45890410958904,3.32831325301205,3.53347849755035
"45","Belgium-Luxembourg",NA,NA,0.476197562463727,0.601363089669918,0.50251256281407,0.466353383458647,0.168557059961315,0.334801762114537,NA,NA,NA,NA,NA,NA,NA,NA,NA,NA,NA,NA,NA,NA,NA,NA,NA,NA,NA,NA,NA,NA
"52","Indonesia",NA,NA,0.212773502606475,NA,NA,NA,NA,NA,NA,NA,NA,NA,NA,NA,NA,NA,NA,NA,NA,NA,NA,NA,0.60377358490566,NA,2.66896134352069,2.5210665637236,2.64160321312024,2.58801435406699,0.369565217391304,NA
"71","Dominican Rep.",NA,NA,NA,0.5,NA,NA,NA,NA,NA,NA,NA,NA,NA,NA,NA,NA,NA,NA,NA,NA,NA,NA,1.08894536213469,NA,3.96170212765957,5.88275862068966,NA,NA,NA,NA
"80","Russian Federation",NA,NA,NA,0.227397441062473,NA,NA,NA,NA,NA,NA,NA,NA,NA,NA,NA,NA,NA,NA,NA,NA,NA,5.83333333333333,0.632456250135521,0.610175230903778,14.75,0.463298553144129,0.500049046445844,0.490004760009676,0.439086525338914,0.428887792036854
"82","Sweden",NA,NA,NA,0.273072251151141,0.272222133260741,NA,NA,NA,NA,NA,NA,NA,NA,NA,0.0888888888888889,NA,3,NA,NA,NA,NA,140.5,NA,NA,NA,NA,NA,NA,4.29890375138288,4.24373544151902
"92","Sri Lanka",NA,NA,NA,NA,5.0251256281407,4.48986486486486,0.297883324728962,NA,2.73366834170854,NA,NA,NA,NA,NA,5,3.33333333333333,2.5,2.26359338061466,3.99074074074074,3.55095541401274,NA,NA,NA,NA,NA,NA,NA,NA,3.55233853006682,NA
"103","So. African Customs Union",NA,NA,NA,NA,NA,1.08136696501221,1.4425,NA,NA,NA,NA,NA,NA,NA,NA,NA,NA,NA,NA,NA,NA,NA,NA,NA,NA,NA,NA,NA,NA,NA
"123","Philippines",NA,NA,NA,NA,NA,NA,0.297883324728962,NA,NA,NA,NA,NA,NA,NA,NA,NA,NA,NA,1.85073790397908,1.847654977744,1.82819642706902,1.7464909673371,1.85771170692859,NA,0.5904,1.92857142857143,0.358975786489426,2.13561320754717,1.58527827648115,0.425371155885472
"127","Ukraine",NA,NA,NA,NA,NA,NA,0.2968,NA,NA,NA,NA,NA,NA,NA,NA,NA,NA,0.439265925092697,0.532596737934663,1.08805991508849,0.544477886280049,0.439769088095643,0.567773261571923,0.475079807165452,0.677055215051586,0.736712037244012,0.456738833437709,0.468569750365114,0.455348460538501,0.513056583910088
"130","US Misc. Pacific Isds",NA,NA,NA,NA,NA,NA,0.313022157996146,0.241124942369756,0.178191968533909,NA,NA,NA,NA,NA,NA,NA,NA,NA,NA,NA,NA,NA,NA,NA,NA,NA,NA,NA,NA,NA
"131","Samoa",NA,NA,NA,NA,NA,NA,0.247321428571429,NA,NA,NA,NA,NA,NA,NA,NA,NA,NA,NA,NA,NA,NA,NA,NA,NA,NA,NA,NA,NA,NA,NA
"139","Czechia",NA,NA,NA,NA,NA,NA,NA,0.275407292474787,NA,NA,NA,NA,NA,NA,0.233463035019455,NA,NA,0.180508573998397,0.24424129616312,0.649246102734475,0.506273402636693,0.585296772601718,0.688960319042871,0.651932236273783,0.478670155173308,0.438481437613796,0.46041955199096,0.458614447918381,0.496307797712314,0.378688552849577
"148","Spain",NA,NA,NA,NA,NA,NA,NA,1,NA,NA,25,3,NA,NA,1,0.769230769230769,0.272904483430799,NA,0.85368016553355,0.454116014799154,1.05409060175794,0.866666666666667,0.792243083003953,1.40930599369085,0.383383020158406,2.42857142857143,3.4465088402757,1.16170212765957,0.8,0.719883720930233
"151","Egypt",NA,NA,NA,NA,NA,NA,NA,0.571428571428571,NA,NA,NA,NA,NA,NA,0.769230769230769,NA,0.833333333333333,NA,0.720376797223599,NA,NA,NA,0.848608282416836,NA,1,1.70355731225296,NA,NA,5.58024691358025,NA
"158","Belgium",NA,NA,NA,NA,NA,NA,NA,NA,0.16645543085266,0.385989992852037,0.182476247926406,0.212397885631908,0.301624129930394,0.36418359668924,0.31349634353036,0.321524366879158,0.405946069023843,0.592410949007318,0.451948636823726,0.495116332370835,0.599646259499795,0.686312769589963,0.676218100359408,0.610950626394714,0.520127064791087,0.482620780742823,0.483152034845702,0.50136335322255,0.473661430661036,0.497711771592969
"159","Bolivia (Plurinational State of)",NA,NA,NA,NA,NA,NA,NA,NA,0.390181646532282,1.25,0.909090909090909,NA,NA,NA,NA,NA,NA,NA,NA,NA,NA,NA,NA,0.535864126520954,NA,NA,NA,NA,NA,NA
"163","Chile",NA,NA,NA,NA,NA,NA,NA,NA,0.402932384341637,NA,NA,NA,NA,NA,NA,NA,NA,NA,2.6,NA,NA,NA,4.74590163934426,2.72461900068239,1.50730688935282,4.27594627594628,NA,NA,NA,NA
"167","Greece",NA,NA,NA,NA,NA,NA,NA,NA,1.21158129175947,NA,NA,NA,NA,NA,NA,NA,2,NA,NA,NA,NA,NA,NA,NA,NA,NA,NA,NA,NA,NA
"172","Malaysia",NA,NA,NA,NA,NA,NA,NA,NA,1.36683417085427,NA,2.5,2,2,NA,2.22222222222222,3.33333333333333,NA,2.36111111111111,2.26638115631692,4.25333333333333,3.3716814159292,3.00462962962963,2.26388022457891,NA,0.47887323943662,0.967264573991031,0.864,0.420062695924765,0.418737407656145,0.598444790046656
"175","Poland",NA,NA,NA,NA,NA,NA,NA,NA,0.19976146693844,NA,NA,NA,NA,NA,NA,0.249867091972355,0.402960526315789,NA,0.230866735464985,0.233385892988542,NA,0.603337106110803,0.584516677655299,0.577742422932699,0.396877741062035,0.384354298280868,0.451215865561081,0.475513368149767,0.440993384391353,0.47404995147268
"176","Portugal",NA,NA,NA,NA,NA,NA,NA,NA,2.032,NA,NA,NA,NA,NA,NA,NA,NA,NA,NA,NA,NA,NA,NA,NA,NA,1.72608695652174,NA,NA,NA,NA
"177","Viet Nam",NA,NA,NA,NA,NA,NA,NA,NA,0.544,NA,0.666666666666667,5,NA,0.8,5,0.869565217391304,0.652173913043478,1.01233333333333,1.34424242424242,NA,NA,NA,4.20163984208928,4.40414411050961,3.76139637349602,4.29401233339964,5.26164079822616,0.600529739616586,5.52830188679245,NA
"198","Nicaragua",NA,NA,NA,NA,0.607344632768362,NA,NA,NA,NA,NA,NA,NA,NA,NA,0.275862068965517,NA,NA,NA,NA,NA,NA,NA,NA,NA,NA,NA,NA,NA,NA,NA
"204","Turkey",NA,NA,NA,NA,1,NA,NA,NA,NA,NA,NA,NA,NA,NA,NA,NA,NA,2.44448,NA,1,NA,0.5,0.813229571984436,NA,NA,4.30040595399188,NA,5.58184764991896,0.705383447906437,5.55670103092783
"223","Norway",NA,NA,NA,NA,NA,NA,NA,NA,NA,NA,NA,0.195027372262774,NA,NA,NA,NA,NA,NA,29.5,NA,NA,NA,0.685185185185185,NA,NA,NA,NA,0.672080808080808,NA,NA
"231","Uruguay",NA,NA,NA,NA,NA,NA,NA,NA,NA,NA,0.183092335784435,0.220566232262082,0.377113133940182,0.267036731650459,0.29382183908046,0.252818822202018,0.369393139841689,0.605948169948652,0.404120555821754,0.447237663885578,0.552945323713785,0.601943169493884,0.579419250231587,0.566179628510393,0.385222957173966,0.401270236223427,0.375096762875556,NA,0.36717531193108,0.389423076923077
"239","Colombia",NA,NA,NA,NA,NA,NA,NA,NA,NA,NA,NA,NA,0.983606557377049,1.81818181818182,3.33333333333333,0.240942850169113,NA,NA,NA,NA,NA,NA,4.17699775952203,3.21999197109595,3.68964640040702,4.01632047477745,3.76262363352421,NA,4.92341356673961,1.16666666666667
"269","New Zealand",NA,NA,NA,NA,NA,NA,NA,NA,NA,NA,NA,NA,NA,5,NA,NA,NA,NA,NA,NA,NA,NA,NA,NA,NA,NA,NA,5.38297872340426,NA,NA
"270","Niger",NA,NA,NA,NA,NA,NA,NA,NA,NA,NA,NA,NA,NA,0.410958904109589,NA,NA,NA,NA,NA,NA,NA,NA,NA,NA,NA,NA,NA,NA,NA,NA
"273","South Africa",NA,NA,NA,NA,NA,NA,NA,NA,NA,NA,NA,NA,NA,0.666666666666667,NA,NA,10,NA,6.1744966442953,1.89307440336921,18.0576923076923,0.959106399091253,1.51574051991414,1.19365079365079,1.37087378640777,1.78627968337731,NA,NA,NA,5.19211822660098
"276","Tunisia",NA,NA,NA,NA,NA,NA,NA,NA,NA,NA,NA,NA,NA,1.11111111111111,NA,NA,NA,NA,NA,NA,NA,NA,NA,NA,NA,NA,NA,NA,NA,NA
"311","Ghana",NA,NA,NA,NA,NA,NA,NA,NA,NA,NA,1.064,NA,NA,NA,NA,NA,NA,NA,NA,NA,NA,NA,NA,NA,NA,NA,NA,NA,NA,NA
"341","Kenya",NA,NA,NA,NA,NA,NA,NA,NA,NA,NA,NA,NA,NA,NA,2.22222222222222,1,6.66666666666667,NA,0.858314201377501,NA,NA,NA,0.608695652173913,NA,1.53613053613054,NA,NA,NA,2,0.428571428571429
"343","Latvia",NA,NA,NA,NA,NA,NA,NA,NA,NA,NA,NA,NA,NA,NA,NA,NA,0.588235294117647,NA,NA,NA,NA,NA,NA,NA,NA,NA,NA,NA,NA,NA
"376","Slovakia",NA,NA,NA,NA,NA,NA,NA,NA,NA,NA,NA,NA,NA,NA,NA,NA,NA,0.287900191049615,0.346362785896319,NA,NA,0.48385756589842,0.659729286540791,0.652485290671753,0.49655252533278,0.47081085809775,0.472456791995149,0.513743853708533,0.517941046019092,0.486736096484908
"403","Lithuania",NA,NA,NA,NA,NA,NA,NA,NA,NA,NA,NA,NA,NA,NA,NA,NA,NA,NA,2.04333333333333,NA,NA,NA,1.08937863483318,0.979969485401019,0.724077357553349,NA,0.744384999560604,0.694008493353028,0.64005443583118,0.63476261011928
"404","Luxembourg",NA,NA,NA,NA,NA,NA,NA,NA,NA,NA,NA,NA,NA,NA,NA,NA,NA,NA,0.446264652097011,0.395102219742558,0.447681988557901,0.415623498895187,0.576721271092499,NA,0.502613405551794,0.424709864732165,0.467770913341125,0.495093028010632,0.436076305220884,0.50277172297632
"406","Malta",NA,NA,NA,NA,NA,NA,NA,NA,NA,NA,NA,NA,NA,NA,NA,NA,NA,NA,0.450113722517058,NA,NA,NA,NA,NA,NA,NA,NA,NA,NA,NA
"413","Serbia",NA,NA,NA,NA,NA,NA,NA,NA,NA,NA,NA,NA,NA,NA,NA,NA,NA,NA,0.626875,0.662,NA,1.32535885167464,1.23529411764706,0.993370036955016,0.605595425984932,0.406956980820535,0.425367942386749,0.501136742077966,0.400092610650462,0.417389599503401
"475","Peru",NA,NA,NA,NA,NA,NA,NA,NA,NA,NA,NA,NA,NA,NA,NA,0.321658327376698,NA,NA,NA,0.4,NA,NA,1.46,NA,1.13887554060548,5.75641025641026,NA,5.58594366938668,5.18936170212766,5.59188544152745
"488","Cambodia",NA,NA,NA,NA,NA,NA,NA,NA,NA,NA,NA,NA,NA,NA,NA,NA,NA,NA,NA,NA,NA,1.97,NA,NA,NA,NA,NA,NA,NA,NA
"491","Costa Rica",NA,NA,NA,NA,NA,NA,NA,NA,NA,NA,NA,NA,NA,NA,NA,NA,NA,NA,NA,NA,11.3333333333333,2.76556776556777,2.0314104500151,1.35862068965517,24.9237288135593,15.9,18.3185185185185,17.776,0.432584269662921,1.00135379061372
"492","Croatia",NA,NA,NA,NA,NA,NA,NA,NA,NA,NA,NA,NA,NA,NA,NA,NA,NA,NA,NA,NA,NA,0.636997405966278,0.874735326501228,0.998865540553555,0.814562760434116,0.418980409308179,0.443770323358401,0.537884556183592,0.386794445033949,0.396911438771647
"502","Mexico",NA,NA,NA,NA,NA,NA,NA,NA,NA,NA,NA,NA,NA,NA,NA,NA,NA,NA,NA,NA,NA,0.656773575873624,NA,NA,NA,13.1111111111111,NA,NA,NA,NA
"508","Romania",NA,NA,NA,NA,NA,NA,NA,NA,NA,NA,NA,NA,NA,NA,NA,NA,NA,NA,NA,NA,0.649662262421573,0.861022400704815,0.908740941486033,0.988550858659257,0.649449054140122,0.462792685538311,0.470333967981776,0.521655124244498,0.454500760325004,0.542656057382085
"518","United Arab Emirates",NA,NA,NA,NA,NA,NA,NA,NA,NA,NA,NA,NA,NA,NA,NA,NA,NA,NA,NA,NA,NA,0.5,NA,NA,0.873015873015873,NA,NA,NA,NA,NA
"522","United Rep. of Tanzania",NA,NA,NA,NA,NA,NA,NA,NA,NA,NA,NA,NA,NA,NA,NA,NA,NA,NA,NA,NA,NA,0.503703703703704,NA,NA,NA,NA,NA,NA,NA,NA
"525","Venezuela",NA,NA,NA,NA,NA,NA,NA,NA,NA,NA,NA,NA,NA,NA,NA,NA,NA,NA,NA,NA,NA,2.66666666666667,NA,NA,NA,NA,NA,NA,NA,NA
"539","Benin",NA,NA,NA,NA,NA,NA,NA,NA,NA,NA,NA,NA,NA,NA,NA,NA,NA,NA,NA,NA,NA,NA,1,NA,NA,NA,NA,NA,NA,NA
"542","Estonia",NA,NA,NA,NA,NA,NA,NA,NA,NA,NA,NA,NA,NA,NA,NA,NA,NA,NA,NA,NA,NA,NA,2.5,0.571315402316194,NA,NA,NA,NA,NA,NA
"544","Djibouti",NA,NA,NA,NA,NA,NA,NA,NA,NA,NA,NA,NA,NA,NA,NA,NA,NA,NA,NA,NA,NA,NA,4.12820512820513,NA,NA,NA,4.47120418848168,NA,NA,NA
"545","Honduras",NA,NA,NA,NA,NA,NA,NA,NA,NA,NA,NA,NA,NA,NA,NA,NA,NA,NA,NA,NA,NA,NA,1.43,NA,NA,NA,NA,NA,NA,NA
"549","Iran",NA,NA,NA,NA,NA,NA,NA,NA,NA,NA,NA,NA,NA,NA,NA,NA,NA,NA,NA,NA,NA,NA,4.2273381294964,NA,NA,1.35083612040134,1.7233466825414,1.11064292510534,1.11495077932732,1.21941178212837
"557","Rep. of Moldova",NA,NA,NA,NA,NA,NA,NA,NA,NA,NA,NA,NA,NA,NA,NA,NA,NA,NA,NA,1.5,NA,NA,4.875,6.2,0.432,0.393939393939394,NA,0.750224620871787,0.371794871794872,NA
"616","Slovenia",NA,NA,NA,NA,NA,NA,NA,NA,NA,NA,NA,NA,NA,NA,NA,NA,NA,NA,NA,NA,NA,NA,NA,0.588138385502471,NA,NA,NA,NA,NA,NA
"702","Ecuador",NA,NA,NA,NA,NA,NA,NA,NA,NA,NA,NA,NA,NA,NA,NA,NA,NA,NA,NA,NA,NA,NA,NA,NA,3.97788115049466,NA,5.77867203219316,NA,5.05799648506151,4.29567307692308
"745","Finland",NA,NA,NA,NA,NA,NA,NA,NA,NA,NA,NA,NA,NA,NA,NA,NA,NA,NA,NA,NA,NA,NA,NA,NA,NA,NA,NA,1.07088,NA,NA
"783","Bangladesh",NA,NA,NA,NA,NA,NA,NA,NA,NA,NA,NA,NA,NA,NA,NA,NA,NA,NA,NA,NA,NA,NA,NA,NA,NA,NA,NA,NA,2.35188155459593,NA
"808","Mali",NA,NA,NA,NA,NA,NA,NA,NA,NA,NA,NA,NA,NA,NA,NA,NA,NA,NA,NA,NA,NA,NA,NA,NA,NA,NA,NA,NA,2.95470232959448,NA
"888","Bulgaria",NA,NA,NA,NA,NA,NA,NA,NA,NA,NA,NA,NA,NA,NA,NA,NA,NA,NA,NA,NA,NA,NA,NA,NA,NA,1.5384,NA,NA,NA,0.814279569892473
"929","Togo",NA,NA,NA,NA,NA,NA,NA,NA,NA,NA,NA,NA,NA,NA,NA,NA,NA,NA,NA,NA,NA,NA,NA,NA,NA,0.774541510550187,NA,NA,NA,0.627930201732246
"954","Ireland",NA,NA,NA,NA,NA,NA,NA,NA,NA,NA,NA,NA,NA,NA,NA,NA,NA,NA,NA,NA,NA,NA,NA,NA,NA,NA,NA,NA,NA,8.76
"960","Lebanon",NA,NA,NA,NA,NA,NA,NA,NA,NA,NA,NA,NA,NA,NA,NA,NA,NA,NA,NA,NA,NA,NA,NA,NA,NA,NA,NA,NA,NA,1.29720853858785
