"","Netweight..kg..1991","Netweight..kg..1992","Netweight..kg..1993","Netweight..kg..1994","Netweight..kg..1995","Netweight..kg..1996","Netweight..kg..1997","Netweight..kg..1998","Netweight..kg..1999","Netweight..kg..2000","Netweight..kg..2001","Netweight..kg..2002","Netweight..kg..2003","Netweight..kg..2004","Netweight..kg..2005","Netweight..kg..2006","Netweight..kg..2007","Netweight..kg..2008","Netweight..kg..2009","Netweight..kg..2010","Netweight..kg..2011","Netweight..kg..2012","Netweight..kg..2013","Netweight..kg..2014","Netweight..kg..2015","Netweight..kg..2016","Netweight..kg..2017","Netweight..kg..2018","Netweight..kg..2019","Netweight..kg..2020","Partner"
"1",2878631168,3208030720,3180565248,3202238720,3322754560,3173269760,3193948672,3648375808,4370407424,3840421000,4598278200,4361555600,4515525600,3719235000,3921592500,3536061100,3692752500,3502210568,3290670649,3415935989,3191245640,3437609143,3638248773,3727762327,3810487798,3145694076,3019358014,3643687644,3670880484,NA,"World"
"2",828912640,481299328,405520672,508481120,465900512,276459680,36758000,72820000,221498688,154424300,100221300,179254400,202549500,54463700,9021600,23591300,23500300,25120755,58273792,114954419,103292674,87334660,56150757,40478349,37028169,21126834,17245200,16629596,26399007,27354764,"Argentina"
"3",546000,1769875,7011898,10243898,3643875,8301101,7120000,7401000,6564101,7615600,4159100,9488800,1213800,3662300,9717900,5511100,7598200,7644631,7920804,9647571,10781960,20939853,18975671,15008437,26064968,58311291,54724450,39034150,42661124,48186106,"Austria"
"4",212806192,577664320,669326336,929109824,502783008,535004864,1155090048,1316535040,1276863104,1391228900,2321513400,1722874100,2051376800,1561440600,2297742500,1817798500,2094610300,1782706959,2443123187,1607734084,1506599059,1243894196,799186469,1873900158,1630497890,974037815,626285007,996121023,570215174,1444776417,"Brazil"
"5",779000,577000,2139375,30173800,17405000,35794100,34599000,132337000,78174376,3407300,101805800,312800,414500,14168300,50022000,110047800,151826100,104932430,1605511,568109271,278083013,303864247,480527454,237417938,84506180,160984771,101992000,156886630,122485825,125540203,"Canada"
"6",82300,3375,5500,18000,4875,11875,195000,53000,197500,100800,2498100,2413500,444900,428500,946800,1105200,1806700,3241923,4537213,2336371,4805389,2965129,1418836,1894848,1154609,836562,1628770,1653924,2590544,2584316,"China"
"7",95398,1312,400875,710312,335187,344875,175000,155000,1165875,607400,1146800,165500,1000,36500,503700,3602100,1730000,2023615,834683,3685252,7819299,2468814,3033313,2517662,6255419,7708765,4222114,13258299,9972836,5640835,"France"
"8",398,898,NA,NA,NA,NA,NA,NA,NA,NA,NA,NA,NA,NA,900,NA,NA,NA,NA,NA,NA,NA,136,1581,1940,4584,7939,15464,12468,1711,"China, Hong Kong SAR"
"9",4687,12187,22000,NA,NA,61300,2000,250000,126601,66800,197700,27000,5000,10009000,NA,NA,567100,1012120,1839100,26940,170952,27520,1076046,2635735,501640,3897440,36453605,3207750,16658300,32838264,"Hungary"
"10",439812,NA,NA,2812,3500,NA,144000,60000,27398,593500,3490000,2648500,227800,705000,6101700,8361200,9838300,13213888,15138284,18846880,21168145,11033512,6554431,6644734,7489969,12263983,9468680,8732935,8341368,19998860,"Italy"
"11",3187,4187,31699,39300,4000,199,11687,4000,7000,33300,47900,37600,14500,1400,35000,9200,21800,9652,9786,18402,136804,22719,15108,7872,4113,10205,8564,8544,2131,59610,"Japan"
"12",4625,2812,1187,1687,199,500,1000,2000,296,1600,2500,NA,NA,28600,100,300,7000,432,22513,2000,4426,NA,NA,301,701,120,360,180,180,432,"Rep. of Korea"
"13",500,NA,13125,597,NA,97,NA,NA,NA,2000,2500,5100,2800,100,NA,NA,23100,24767,40872,NA,NA,114,NA,314,11480,191,NA,NA,NA,NA,"Other Asia, nes"
"14",1028000,156500,39859000,101406496,63550896,164710128,133750000,277568000,1194090240,855102100,452407600,739518300,50138300,275176700,126890900,738300,166900,2873296,864587,69750,353653,287636,139483,58110,47712,59905,7542020,13751322,10881278,13468727,"Netherlands"
"15",101389128,42243200,99740872,20609800,73605624,32262300,27481000,NA,42505000,20846900,116477700,39928100,279691600,263813700,300713300,215299700,451951400,120752700,33230403,384023750,448413939,601545567,458524878,242353014,265216889,100004221,114248000,964,13,6,"Paraguay"
"16",26500,NA,2687,NA,NA,NA,NA,NA,NA,NA,NA,NA,NA,NA,NA,91200,NA,615384,1838,3482,3593,2725,2105450,2588236,2120643,1981691,1167823,6735,16654280,2962068,"India"
"17",1625,500,NA,898,898,2312,NA,3875,NA,400,NA,NA,NA,NA,NA,NA,NA,NA,NA,3,NA,NA,8,NA,949,1354,828,3098,3446,NA,"Singapore"
"18",31300,157300,139000,381500,606625,388500,332000,332000,267500,278400,290500,312800,332000,257100,437500,240600,217500,93745,170047,136805,54259,63977,4653,21803,60322,80314,159022,276285,114764,135203,"Switzerland"
"19",40500,41300,NA,NA,699,NA,4000,3000,8312,NA,NA,17800,1900,1e+06,600,NA,NA,5820,729,15041,10658,53142,1089,631157,45826,7487,441587,151127,15365,8045,"Thailand"
"20",1732439424,2103995008,1954674048,1541664512,2193347072,2119014272,1795570944,1836365952,1545148544,1405946200,1490437000,1575447500,1928427500,1344511600,1107455900,1257947000,929818500,1293790979,691850807,448235612,515262789,876393704,1479966447,1222962713,1637063101,1497463280,1835729776,2256938466,2489521409,1873083688,"USA"
"23",NA,25000,NA,NA,2312,NA,NA,NA,NA,21500,20000,22000,NA,NA,NA,NA,NA,NA,16010,NA,NA,NA,2,154,NA,NA,NA,NA,NA,NA,"Australia"
"28",NA,9875,1131187,491625,1228500,797812,1089000,776000,64601,3300,125700,32900,NA,16400,1676900,350600,3916300,210680,25000,34175,3853,321300,6400930,2260270,3023930,228371,209740,391520,887064,2479178,"Denmark"
"32",NA,26898,64398,62898,NA,NA,NA,NA,NA,NA,NA,NA,NA,3300,1100,NA,100,NA,5,NA,NA,271,1656,1451,14,1,792,1880,1224,436,"Israel"
"40",NA,40000,386125,1100187,95000,31898,2000,15000,32300,NA,492000,38600,NA,NA,2000,NA,NA,NA,1168,24866,86023,55426,243471,1699,1751,4292,2252,146,332,1837,"United Kingdom"
"45",NA,NA,67199,44898,39800,79800,517000,227000,NA,NA,NA,NA,NA,NA,NA,NA,NA,NA,NA,NA,NA,NA,NA,NA,NA,NA,NA,NA,NA,NA,"Belgium-Luxembourg"
"52",NA,NA,28199,NA,NA,NA,NA,NA,NA,NA,NA,NA,NA,NA,NA,NA,NA,NA,NA,NA,NA,NA,265,NA,26438,36266,59755,41800,184,NA,"Indonesia"
"71",NA,NA,NA,2000,NA,NA,NA,NA,NA,NA,NA,NA,NA,NA,NA,NA,NA,NA,NA,NA,NA,NA,787,NA,705,145,NA,NA,NA,NA,"Dominican Rep."
"80",NA,NA,NA,57586400,NA,NA,NA,NA,NA,NA,NA,NA,NA,NA,NA,NA,NA,NA,NA,NA,NA,6,2628751,750096,4,718800,876720,1281510,439640,303900,"Russian Federation"
"82",NA,NA,NA,106199,124898,NA,NA,NA,NA,NA,NA,NA,NA,NA,112500,NA,1000,NA,NA,NA,NA,2,NA,NA,NA,NA,NA,NA,9943,14167,"Sweden"
"92",NA,NA,NA,NA,199,296,1937,NA,199,NA,NA,NA,NA,NA,200,300,1200,846,540,628,NA,NA,NA,NA,NA,NA,NA,NA,449,NA,"Sri Lanka"
"103",NA,NA,NA,NA,NA,3687,2000,NA,NA,NA,NA,NA,NA,NA,NA,NA,NA,NA,NA,NA,NA,NA,NA,NA,NA,NA,NA,NA,NA,NA,"So. African Customs Union"
"123",NA,NA,NA,NA,NA,NA,1937,NA,NA,NA,NA,NA,NA,NA,NA,NA,NA,NA,5353,36844,35657,30279,3767,NA,625,406,233506,1696,557,7544,"Philippines"
"127",NA,NA,NA,NA,NA,NA,35000,NA,NA,NA,NA,NA,NA,NA,NA,NA,NA,240030,20907,62889,82564580,29828172,39902226,49500881,2246833,7238318,79596744,88410720,96876895,55237381,"Ukraine"
"130",NA,NA,NA,NA,NA,NA,1038000,2169000,1970375,NA,NA,NA,NA,NA,NA,NA,NA,NA,NA,NA,NA,NA,NA,NA,NA,NA,NA,NA,NA,NA,"US Misc. Pacific Isds"
"131",NA,NA,NA,NA,NA,NA,28000,NA,NA,NA,NA,NA,NA,NA,NA,NA,NA,NA,NA,NA,NA,NA,NA,NA,NA,NA,NA,NA,NA,NA,"Samoa"
"139",NA,NA,NA,NA,NA,NA,NA,1289000,NA,NA,NA,NA,NA,NA,25700,NA,NA,1022860,1181950,78260,2038766,3323420,626875,1496789,2370833,5113863,5805240,2357876,986674,10441900,"Czechia"
"148",NA,NA,NA,NA,NA,NA,NA,3000,NA,NA,200,1000,NA,NA,3000,2600,51300,NA,6766,30272,5916,60,4048,1268,383066,28,3337,470,20,25800,"Spain"
"151",NA,NA,NA,NA,NA,NA,NA,7000,NA,NA,NA,NA,NA,NA,1300,NA,2400,NA,2017,NA,NA,NA,1473,NA,1,759,NA,NA,243,NA,"Egypt"
"158",NA,NA,NA,NA,NA,NA,NA,NA,1242687,139900,663100,2081000,43100,664500,8437100,8612100,12297200,9176905,15445618,13495083,3796003,4156312,6733579,6807848,4248856,5107623,3517220,4326465,2733254,3915256,"Belgium"
"159",NA,NA,NA,NA,NA,NA,NA,NA,57199,800,1100,NA,NA,NA,NA,NA,NA,NA,NA,NA,NA,NA,NA,1069230,NA,NA,NA,NA,NA,NA,"Bolivia (Plurinational State of)"
"163",NA,NA,NA,NA,NA,NA,NA,NA,140500,NA,NA,NA,NA,NA,NA,NA,NA,NA,5,NA,NA,NA,122,13189,479,819,NA,NA,NA,NA,"Chile"
"167",NA,NA,NA,NA,NA,NA,NA,NA,898,NA,NA,NA,NA,NA,NA,NA,1000,NA,NA,NA,NA,NA,NA,NA,NA,NA,NA,NA,NA,NA,"Greece"
"172",NA,NA,NA,NA,NA,NA,NA,NA,398,NA,400,2000,1000,NA,900,300,NA,432,2335,75,113,216,1603,NA,142,2230,125,319,2978,6430,"Malaysia"
"175",NA,NA,NA,NA,NA,NA,NA,NA,250699,NA,NA,NA,NA,NA,NA,188100,972800,NA,2432230,761040,NA,1914593,1230059,913909,445767,1771592,1411258,4820712,26430977,23368280,"Poland"
"176",NA,NA,NA,NA,NA,NA,NA,NA,1875,NA,NA,NA,NA,NA,NA,NA,NA,NA,NA,NA,NA,NA,NA,NA,NA,230,NA,NA,NA,NA,"Portugal"
"177",NA,NA,NA,NA,NA,NA,NA,NA,1000,NA,1500,200,NA,5000,200,2300,4600,3000,1650,NA,NA,NA,3293,5357,5901,5027,451,115906,106,NA,"Viet Nam"
"198",NA,NA,NA,NA,70800,NA,NA,NA,NA,NA,NA,NA,NA,NA,348000,NA,NA,NA,NA,NA,NA,NA,NA,NA,NA,NA,NA,NA,NA,NA,"Nicaragua"
"204",NA,NA,NA,NA,1000,NA,NA,NA,NA,NA,NA,NA,NA,NA,NA,NA,NA,12500,NA,3,NA,2,1028,NA,NA,739,NA,617,22402,582,"Turkey"
"223",NA,NA,NA,NA,NA,NA,NA,NA,NA,NA,NA,4384000,NA,NA,NA,NA,NA,NA,2,NA,NA,NA,54,NA,NA,NA,NA,49500,NA,NA,"Norway"
"231",NA,NA,NA,NA,NA,NA,NA,NA,NA,NA,2026300,82542100,615200,188831700,1392000,79412600,1819200,133307489,10435000,243310000,197733053,240287531,263984367,3590410,74204116,206150002,21661200,NA,51805915,208,"Uruguay"
"239",NA,NA,NA,NA,NA,NA,NA,NA,NA,NA,NA,NA,24400,1100,300,2867900,NA,NA,NA,NA,NA,NA,1339,2491,3931,674,3842,NA,457,30,"Colombia"
"269",NA,NA,NA,NA,NA,NA,NA,NA,NA,NA,NA,NA,NA,200,NA,NA,NA,NA,NA,NA,NA,NA,NA,NA,NA,NA,NA,94,NA,NA,"New Zealand"
"270",NA,NA,NA,NA,NA,NA,NA,NA,NA,NA,NA,NA,NA,7300,NA,NA,NA,NA,NA,NA,NA,NA,NA,NA,NA,NA,NA,NA,NA,NA,"Niger"
"273",NA,NA,NA,NA,NA,NA,NA,NA,NA,NA,NA,NA,NA,1500,NA,NA,200,NA,298,4274,104,2641,8386,630,515,379,NA,NA,NA,203,"South Africa"
"276",NA,NA,NA,NA,NA,NA,NA,NA,NA,NA,NA,NA,NA,900,NA,NA,NA,NA,NA,NA,NA,NA,NA,NA,NA,NA,NA,NA,NA,NA,"Tunisia"
"311",NA,NA,NA,NA,NA,NA,NA,NA,NA,NA,250000,NA,NA,NA,NA,NA,NA,NA,NA,NA,NA,NA,NA,NA,NA,NA,NA,NA,NA,NA,"Ghana"
"341",NA,NA,NA,NA,NA,NA,NA,NA,NA,NA,NA,NA,NA,NA,900,1000,300,NA,3049,NA,NA,NA,115,NA,429,NA,NA,NA,22,126,"Kenya"
"343",NA,NA,NA,NA,NA,NA,NA,NA,NA,NA,NA,NA,NA,NA,NA,NA,1700,NA,NA,NA,NA,NA,NA,NA,NA,NA,NA,NA,NA,NA,"Latvia"
"376",NA,NA,NA,NA,NA,NA,NA,NA,NA,NA,NA,NA,NA,NA,NA,NA,NA,172730,929970,NA,NA,2053160,2660082,1711329,1497763,3360736,9234400,6166320,4836145,9021100,"Slovakia"
"403",NA,NA,NA,NA,NA,NA,NA,NA,NA,NA,NA,NA,NA,NA,NA,NA,NA,NA,1500,NA,NA,NA,65340,306083,303991,NA,944479,216640,1451250,1924050,"Lithuania"
"404",NA,NA,NA,NA,NA,NA,NA,NA,NA,NA,NA,NA,NA,NA,NA,NA,NA,NA,667140,250930,405520,416360,162380,NA,2954000,751546,598900,440190,249000,403720,"Luxembourg"
"406",NA,NA,NA,NA,NA,NA,NA,NA,NA,NA,NA,NA,NA,NA,NA,NA,NA,NA,26380,NA,NA,NA,NA,NA,NA,NA,NA,NA,NA,NA,"Malta"
"413",NA,NA,NA,NA,NA,NA,NA,NA,NA,NA,NA,NA,NA,NA,NA,NA,NA,NA,1600,1000,NA,1463,17,145853,335810,30029722,30602821,3014756,108693762,92335341,"Serbia"
"475",NA,NA,NA,NA,NA,NA,NA,NA,NA,NA,NA,NA,NA,NA,NA,279800,NA,NA,NA,15,NA,NA,100,NA,2081,78,NA,3799,470,1257,"Peru"
"488",NA,NA,NA,NA,NA,NA,NA,NA,NA,NA,NA,NA,NA,NA,NA,NA,NA,NA,NA,NA,NA,2000,NA,NA,NA,NA,NA,NA,NA,NA,"Cambodia"
"491",NA,NA,NA,NA,NA,NA,NA,NA,NA,NA,NA,NA,NA,NA,NA,NA,NA,NA,NA,NA,60,819,3311,290,118,280,270,125,1958,2216,"Costa Rica"
"492",NA,NA,NA,NA,NA,NA,NA,NA,NA,NA,NA,NA,NA,NA,NA,NA,NA,NA,NA,NA,NA,24672,59035,519190,552203,6932527,5673890,2195908,22900590,41234410,"Croatia"
"502",NA,NA,NA,NA,NA,NA,NA,NA,NA,NA,NA,NA,NA,NA,NA,NA,NA,NA,NA,NA,NA,2089,NA,NA,NA,18,NA,NA,NA,NA,"Mexico"
"508",NA,NA,NA,NA,NA,NA,NA,NA,NA,NA,NA,NA,NA,NA,NA,NA,NA,NA,NA,NA,7615380,4290490,5838982,9490144,19728345,39226400,47585400,22472464,35963568,29494920,"Romania"
"518",NA,NA,NA,NA,NA,NA,NA,NA,NA,NA,NA,NA,NA,NA,NA,NA,NA,NA,NA,NA,NA,204,NA,NA,63,NA,NA,NA,NA,NA,"United Arab Emirates"
"522",NA,NA,NA,NA,NA,NA,NA,NA,NA,NA,NA,NA,NA,NA,NA,NA,NA,NA,NA,NA,NA,135,NA,NA,NA,NA,NA,NA,NA,NA,"United Rep. of Tanzania"
"525",NA,NA,NA,NA,NA,NA,NA,NA,NA,NA,NA,NA,NA,NA,NA,NA,NA,NA,NA,NA,NA,3,NA,NA,NA,NA,NA,NA,NA,NA,"Venezuela"
"539",NA,NA,NA,NA,NA,NA,NA,NA,NA,NA,NA,NA,NA,NA,NA,NA,NA,NA,NA,NA,NA,NA,1,NA,NA,NA,NA,NA,NA,NA,"Benin"
"542",NA,NA,NA,NA,NA,NA,NA,NA,NA,NA,NA,NA,NA,NA,NA,NA,NA,NA,NA,NA,NA,NA,40,26509,NA,NA,NA,NA,NA,NA,"Estonia"
"544",NA,NA,NA,NA,NA,NA,NA,NA,NA,NA,NA,NA,NA,NA,NA,NA,NA,NA,NA,NA,NA,NA,156,NA,NA,NA,191,NA,NA,NA,"Djibouti"
"545",NA,NA,NA,NA,NA,NA,NA,NA,NA,NA,NA,NA,NA,NA,NA,NA,NA,NA,NA,NA,NA,NA,200,NA,NA,NA,NA,NA,NA,NA,"Honduras"
"549",NA,NA,NA,NA,NA,NA,NA,NA,NA,NA,NA,NA,NA,NA,NA,NA,NA,NA,NA,NA,NA,NA,695,NA,NA,5980,9239,14714,19504,33763,"Iran"
"557",NA,NA,NA,NA,NA,NA,NA,NA,NA,NA,NA,NA,NA,NA,NA,NA,NA,NA,NA,2,NA,NA,8,10,250,66,NA,660001,78,NA,"Rep. of Moldova"
"616",NA,NA,NA,NA,NA,NA,NA,NA,NA,NA,NA,NA,NA,NA,NA,NA,NA,NA,NA,NA,NA,NA,NA,24280,NA,NA,NA,NA,NA,NA,"Slovenia"
"702",NA,NA,NA,NA,NA,NA,NA,NA,NA,NA,NA,NA,NA,NA,NA,NA,NA,NA,NA,NA,NA,NA,NA,NA,76315,NA,497,NA,569,416,"Ecuador"
"745",NA,NA,NA,NA,NA,NA,NA,NA,NA,NA,NA,NA,NA,NA,NA,NA,NA,NA,NA,NA,NA,NA,NA,NA,NA,NA,NA,25000,NA,NA,"Finland"
"783",NA,NA,NA,NA,NA,NA,NA,NA,NA,NA,NA,NA,NA,NA,NA,NA,NA,NA,NA,NA,NA,NA,NA,NA,NA,NA,NA,NA,32420,NA,"Bangladesh"
"808",NA,NA,NA,NA,NA,NA,NA,NA,NA,NA,NA,NA,NA,NA,NA,NA,NA,NA,NA,NA,NA,NA,NA,NA,NA,NA,NA,NA,2318,NA,"Mali"
"888",NA,NA,NA,NA,NA,NA,NA,NA,NA,NA,NA,NA,NA,NA,NA,NA,NA,NA,NA,NA,NA,NA,NA,NA,NA,22500,NA,NA,NA,23250,"Bulgaria"
"929",NA,NA,NA,NA,NA,NA,NA,NA,NA,NA,NA,NA,NA,NA,NA,NA,NA,NA,NA,NA,NA,NA,NA,NA,NA,202840,NA,NA,NA,110146,"Togo"
"954",NA,NA,NA,NA,NA,NA,NA,NA,NA,NA,NA,NA,NA,NA,NA,NA,NA,NA,NA,NA,NA,NA,NA,NA,NA,NA,NA,NA,NA,100,"Ireland"
"960",NA,NA,NA,NA,NA,NA,NA,NA,NA,NA,NA,NA,NA,NA,NA,NA,NA,NA,NA,NA,NA,NA,NA,NA,NA,NA,NA,NA,NA,1218,"Lebanon"
