"","Partner","Trade.Value..US...1991","Trade.Value..US...1992","Trade.Value..US...1993","Trade.Value..US...1994","Trade.Value..US...1995","Trade.Value..US...1996","Trade.Value..US...1997","Trade.Value..US...1998","Trade.Value..US...1999","Trade.Value..US...2000","Trade.Value..US...2001","Trade.Value..US...2002","Trade.Value..US...2003","Trade.Value..US...2004","Trade.Value..US...2005","Trade.Value..US...2006","Trade.Value..US...2007","Trade.Value..US...2008","Trade.Value..US...2009","Trade.Value..US...2010","Trade.Value..US...2011","Trade.Value..US...2012","Trade.Value..US...2013","Trade.Value..US...2014","Trade.Value..US...2015","Trade.Value..US...2016","Trade.Value..US...2017","Trade.Value..US...2018","Trade.Value..US...2019","Trade.Value..US...2020"
"1","World",695756992,765198976,773214016,840468992,822694976,919370752,947292416,934552000,921033664,800452000,923600000,908122000,1170746000,1126904000,1039863000,945389000,1231939000,1862681223,1507438331,1503119695,1721446113,1980435249,2112576301,2001415533,1604562108,1283162451,1232831807,1482119270,1405648390,1573869003
"2","Argentina",195831008,114672000,98106000,133863000,110995000,83588640,11592569,18435000,43828884,28778000,20982000,36462000,52532000,15536000,2363000,6021000,7645000,11353874,26575552,44520543,45632455,40713128,30974219,19803331,13493779,7516875,5861263,5911949,8923304,9639342
"3","Austria",296000,737000,2401000,3243000,1479000,2576487,2734385,2867000,2316753,2018000,1178000,2701000,328000,1356000,3693000,3065000,4722000,6287114,6697906,7250856,8523818,15656860,17770132,15439287,18615969,33369020,33275804,28981974,27874863,32678496
"4","Brazil",51395000,141080992,164104000,250818000,123357000,161290640,361552320,339520000,263535072,284893000,456121000,346691000,499056000,483325000,611742000,479926000,691650000,934464619,1129438951,709568606,812543792,706466981,472414349,1048516993,705462331,394753334,251712696,417380896,215270726,592161924
"5","Canada",340000,302000,676000,6534000,5442000,10913355,9503402,32004000,15422524,816000,20977000,151000,222000,4121000,11998000,29198000,57419000,54701786,1448438,234193448,142104197,187114661,261873148,107561069,31375167,66245756,38607694,59638880,44941657,51126095
"6","China",24000,3000,4000,16000,8000,29905,88299,17000,103426,54000,1180000,906000,266000,322000,560000,639000,1127000,3103701,3677146,1939538,3444954,2507587,1695071,2603560,1632642,1287178,1736300,2546450,4138236,3974696
"7","France",144000,2000,296000,426000,146000,130253,81950,93000,319533,149000,168000,115000,1000,36000,292000,1338000,1381000,1841780,851162,2411509,4943025,2150267,3077683,2414308,4287640,4773755,3721709,7623565,6189234,4829667
"8","China, Hong Kong SAR",1000,3000,NA,NA,NA,NA,NA,NA,NA,NA,NA,NA,NA,NA,2000,NA,NA,NA,NA,NA,NA,NA,83,4641,865,1808,3394,17515,4676,661
"9","Hungary",2000,9000,8000,NA,NA,28575,1154,120000,52257,17000,103000,10000,4000,5776000,NA,NA,255000,490626,945668,17740,145085,14505,808023,1840715,435876,1767778,15898671,1761640,6589880,13275007
"10","Italy",117000,NA,NA,8000,10000,NA,53671,16000,14697,124000,967000,1082000,101000,384000,3707000,4718000,6653000,11391619,12673079,14064707,15997736,7529521,4976276,5480431,5117952,5873986,4717308,4299033,4015148,9254688
"11","Japan",19000,14000,9000,30000,22000,5316,3462,24000,34294,61000,55000,49000,65000,18000,47000,48000,22000,18778,26812,24622,88887,50246,83705,44341,14595,114976,65373,90996,18108,30598
"12","Rep. of Korea",8000,3000,2000,2000,2000,3322,3462,7000,1633,1000,3000,NA,NA,8000,1000,3000,4000,2179,29131,8042,2094,NA,NA,403,3720,744,1015,1321,1513,1902
"13","Other Asia, nes",1000,NA,35000,2000,NA,1993,NA,NA,NA,3000,4000,9000,7000,1000,NA,NA,44000,54303,87836,NA,NA,24,NA,236,4968,76,NA,NA,NA,NA
"14","Netherlands",216000,40000,10296000,26525000,16732000,38811456,36353240,67969000,267991664,199428000,102683000,161557000,12149000,80005000,34256000,329000,122000,1278891,690694,90060,274427,187854,100340,57690,44098,49645,2969437,5912172,4511156,5456837
"15","Paraguay",24456000,10389000,23419000,5755000,17964000,9847405,8704670,NA,8549016,3752000,21564000,9307000,70002000,71777000,78727000,55793000,146510000,69491377,13429060,175879996,244788649,334075841,263386218,133209588,112928509,40977805,44008881,524,10,5
"16","India",8000,NA,2000,NA,NA,NA,NA,NA,NA,NA,NA,NA,NA,NA,NA,41000,NA,508193,1773,3686,4400,2171,1748294,1857377,1547873,3029115,1240919,27590,8169835,1433619
"17","Singapore",2000,1000,NA,1000,1000,3322,NA,1000,NA,1000,NA,NA,NA,NA,NA,NA,NA,NA,NA,1,NA,NA,9,NA,476,686,932,2255,5176,1258
"18","Switzerland",23000,120000,126000,364000,752000,489778,252777,218000,155139,157000,148000,186000,266000,228000,506000,370000,501000,160620,353010,225441,146312,39118,6407,43105,129428,223010,237689,571730,341885,431081
"19","Thailand",26000,21000,NA,NA,1000,NA,5194,4000,7076,NA,NA,12000,2000,125000,2000,NA,NA,6999,11061,40756,19739,174762,2111,372490,34702,9677,162589,201798,25530,15272
"20","USA",422848000,497751008,473296000,399112992,545315968,611327296,515596640,472092000,317977696,280131000,296568000,329343000,535474000,413198000,288414000,340043000,306812000,680828713,297740935,196802117,279780775,514910999,858823065,616944874,657965846,593781366,735000662,880612093,925049613,726020189
"23","Australia",NA,8000,NA,NA,4000,NA,NA,NA,NA,12000,14000,10000,NA,NA,NA,NA,NA,NA,17940,NA,NA,NA,1,86,NA,NA,NA,NA,NA,NA
"28","Denmark",NA,5000,238000,161000,307000,263829,328380,180000,22862,2000,25000,7000,NA,6000,374000,176000,983000,105779,3602,42004,47024,67067,3835965,1409647,1350674,84937,116786,196108,391992,1118966
"32","Israel",NA,14000,17000,19000,NA,NA,NA,NA,NA,NA,NA,NA,NA,3000,1000,NA,1000,NA,43,NA,NA,289,1301,831,3,1,3385,10742,6075,1344
"40","United Kingdom",NA,24000,141000,437000,58000,16613,3462,24000,7620,NA,94000,13000,NA,NA,1000,NA,NA,NA,12449,47841,156810,121002,681828,5589,4085,11028,4770,651,1105,6491
"45","Belgium-Luxembourg",NA,NA,32000,27000,20000,37215,87144,76000,NA,NA,NA,NA,NA,NA,NA,NA,NA,NA,NA,NA,NA,NA,NA,NA,NA,NA,NA,NA,NA,NA
"52","Indonesia",NA,NA,6000,NA,NA,NA,NA,NA,NA,NA,NA,NA,NA,NA,NA,NA,NA,NA,NA,NA,NA,NA,160,NA,70562,91429,157849,108179,68,NA
"71","Dominican Rep.",NA,NA,NA,1000,NA,NA,NA,NA,NA,NA,NA,NA,NA,NA,NA,NA,NA,NA,NA,NA,NA,NA,857,NA,2793,853,NA,NA,NA,NA
"80","Russian Federation",NA,NA,NA,13095000,NA,NA,NA,NA,NA,NA,NA,NA,NA,NA,NA,NA,NA,NA,NA,NA,NA,35,1662570,457690,59,333019,438403,627946,193040,130339
"82","Sweden",NA,NA,NA,29000,34000,NA,NA,NA,NA,NA,NA,NA,NA,NA,10000,NA,3000,NA,NA,NA,NA,281,NA,NA,NA,NA,NA,NA,42744,60121
"92","Sri Lanka",NA,NA,NA,NA,1000,1329,577,NA,544,NA,NA,NA,NA,NA,1000,1000,3000,1915,2155,2230,NA,NA,NA,NA,NA,NA,NA,NA,1595,NA
"103","So. African Customs Union",NA,NA,NA,NA,NA,3987,2885,NA,NA,NA,NA,NA,NA,NA,NA,NA,NA,NA,NA,NA,NA,NA,NA,NA,NA,NA,NA,NA,NA,NA
"123","Philippines",NA,NA,NA,NA,NA,NA,577,NA,NA,NA,NA,NA,NA,NA,NA,NA,NA,NA,9907,68075,65188,52882,6998,NA,369,783,83823,3622,883,3209
"127","Ukraine",NA,NA,NA,NA,NA,NA,10388,NA,NA,NA,NA,NA,NA,NA,NA,NA,NA,105437,11135,68427,44954588,13117508,22655417,23516869,1521230,5332556,36354924,41426589,44112745,28339902
"130","US Misc. Pacific Isds",NA,NA,NA,NA,NA,NA,324917,523000,351105,NA,NA,NA,NA,NA,NA,NA,NA,NA,NA,NA,NA,NA,NA,NA,NA,NA,NA,NA,NA,NA
"131","Samoa",NA,NA,NA,NA,NA,NA,6925,NA,NA,NA,NA,NA,NA,NA,NA,NA,NA,NA,NA,NA,NA,NA,NA,NA,NA,NA,NA,NA,NA,NA
"139","Czechia",NA,NA,NA,NA,NA,NA,NA,355000,NA,NA,NA,NA,NA,NA,6000,NA,NA,184635,288681,50810,1032173,1945187,431892,975805,1134847,2242334,2672846,1081356,489694,3954228
"148","Spain",NA,NA,NA,NA,NA,NA,NA,3000,NA,NA,5000,3000,NA,NA,3000,2000,14000,NA,5776,13747,6236,52,3207,1787,146861,68,11501,546,16,18573
"151","Egypt",NA,NA,NA,NA,NA,NA,NA,4000,NA,NA,NA,NA,NA,NA,1000,NA,2000,NA,1453,NA,NA,NA,1250,NA,1,1293,NA,NA,1356,NA
"158","Belgium",NA,NA,NA,NA,NA,NA,NA,NA,206852,54000,121000,442000,13000,242000,2645000,2769000,4992000,5436499,6980626,6681636,2276259,2852530,4553368,4159259,2209945,2465045,1699352,2169131,1294637,1948669
"159","Bolivia (Plurinational State of)",NA,NA,NA,NA,NA,NA,NA,NA,22318,1000,1000,NA,NA,NA,NA,NA,NA,NA,NA,NA,NA,NA,NA,572962,NA,NA,NA,NA,NA,NA
"163","Chile",NA,NA,NA,NA,NA,NA,NA,NA,56612,NA,NA,NA,NA,NA,NA,NA,NA,NA,13,NA,NA,NA,579,35935,722,3502,NA,NA,NA,NA
"167","Greece",NA,NA,NA,NA,NA,NA,NA,NA,1088,NA,NA,NA,NA,NA,NA,NA,2000,NA,NA,NA,NA,NA,NA,NA,NA,NA,NA,NA,NA,NA
"172","Malaysia",NA,NA,NA,NA,NA,NA,NA,NA,544,NA,1000,4000,2000,NA,2000,1000,NA,1020,5292,319,381,649,3629,NA,68,2157,108,134,1247,3848
"175","Poland",NA,NA,NA,NA,NA,NA,NA,NA,50080,NA,NA,NA,NA,NA,NA,47000,392000,NA,561521,177616,NA,1155145,718990,528004,176915,680919,636782,2292313,11655886,11077732
"176","Portugal",NA,NA,NA,NA,NA,NA,NA,NA,3810,NA,NA,NA,NA,NA,NA,NA,NA,NA,NA,NA,NA,NA,NA,NA,NA,397,NA,NA,NA,NA
"177","Viet Nam",NA,NA,NA,NA,NA,NA,NA,NA,544,NA,1000,1000,NA,4000,1000,2000,3000,3037,2218,NA,NA,NA,13836,23593,22196,21586,2373,69605,586,NA
"198","Nicaragua",NA,NA,NA,NA,43000,NA,NA,NA,NA,NA,NA,NA,NA,NA,96000,NA,NA,NA,NA,NA,NA,NA,NA,NA,NA,NA,NA,NA,NA,NA
"204","Turkey",NA,NA,NA,NA,1000,NA,NA,NA,NA,NA,NA,NA,NA,NA,NA,NA,NA,30556,NA,3,NA,1,836,NA,NA,3178,NA,3444,15802,3234
"223","Norway",NA,NA,NA,NA,NA,NA,NA,NA,NA,NA,NA,855000,NA,NA,NA,NA,NA,NA,59,NA,NA,NA,37,NA,NA,NA,NA,33268,NA,NA
"231","Uruguay",NA,NA,NA,NA,NA,NA,NA,NA,NA,NA,371000,18206000,232000,50425000,409000,20077000,672000,80777429,4216998,108817396,109335567,144639438,152957624,2032817,28585129,82721860,8125046,NA,19021853,81
"239","Colombia",NA,NA,NA,NA,NA,NA,NA,NA,NA,NA,NA,NA,24000,2000,1000,691000,NA,NA,NA,NA,NA,NA,5593,8021,14504,2707,14456,NA,2250,35
"269","New Zealand",NA,NA,NA,NA,NA,NA,NA,NA,NA,NA,NA,NA,NA,1000,NA,NA,NA,NA,NA,NA,NA,NA,NA,NA,NA,NA,NA,506,NA,NA
"270","Niger",NA,NA,NA,NA,NA,NA,NA,NA,NA,NA,NA,NA,NA,3000,NA,NA,NA,NA,NA,NA,NA,NA,NA,NA,NA,NA,NA,NA,NA,NA
"273","South Africa",NA,NA,NA,NA,NA,NA,NA,NA,NA,NA,NA,NA,NA,1000,NA,NA,2000,NA,1840,8091,1878,2533,12711,752,706,677,NA,NA,NA,1054
"276","Tunisia",NA,NA,NA,NA,NA,NA,NA,NA,NA,NA,NA,NA,NA,1000,NA,NA,NA,NA,NA,NA,NA,NA,NA,NA,NA,NA,NA,NA,NA,NA
"311","Ghana",NA,NA,NA,NA,NA,NA,NA,NA,NA,NA,266000,NA,NA,NA,NA,NA,NA,NA,NA,NA,NA,NA,NA,NA,NA,NA,NA,NA,NA,NA
"341","Kenya",NA,NA,NA,NA,NA,NA,NA,NA,NA,NA,NA,NA,NA,NA,2000,1000,2000,NA,2617,NA,NA,NA,70,NA,659,NA,NA,NA,44,54
"343","Latvia",NA,NA,NA,NA,NA,NA,NA,NA,NA,NA,NA,NA,NA,NA,NA,NA,1000,NA,NA,NA,NA,NA,NA,NA,NA,NA,NA,NA,NA,NA
"376","Slovakia",NA,NA,NA,NA,NA,NA,NA,NA,NA,NA,NA,NA,NA,NA,NA,NA,NA,49729,322107,NA,NA,993437,1754934,1116617,743718,1582271,4362855,3167909,2504838,4390895
"403","Lithuania",NA,NA,NA,NA,NA,NA,NA,NA,NA,NA,NA,NA,NA,NA,NA,NA,NA,NA,3065,NA,NA,NA,71180,299952,220113,NA,703056,150350,928879,1221315
"404","Luxembourg",NA,NA,NA,NA,NA,NA,NA,NA,NA,NA,NA,NA,NA,NA,NA,NA,NA,NA,297721,99143,181544,173049,93648,NA,1484720,319189,280148,217935,108583,202979
"406","Malta",NA,NA,NA,NA,NA,NA,NA,NA,NA,NA,NA,NA,NA,NA,NA,NA,NA,NA,11874,NA,NA,NA,NA,NA,NA,NA,NA,NA,NA,NA
"413","Serbia",NA,NA,NA,NA,NA,NA,NA,NA,NA,NA,NA,NA,NA,NA,NA,NA,NA,NA,1003,662,NA,1939,21,144886,203365,12220805,13017459,1510805,43487571,38539811
"475","Peru",NA,NA,NA,NA,NA,NA,NA,NA,NA,NA,NA,NA,NA,NA,NA,90000,NA,NA,NA,6,NA,NA,146,NA,2370,449,NA,21221,2439,7029
"488","Cambodia",NA,NA,NA,NA,NA,NA,NA,NA,NA,NA,NA,NA,NA,NA,NA,NA,NA,NA,NA,NA,NA,3940,NA,NA,NA,NA,NA,NA,NA,NA
"491","Costa Rica",NA,NA,NA,NA,NA,NA,NA,NA,NA,NA,NA,NA,NA,NA,NA,NA,NA,NA,NA,NA,680,2265,6726,394,2941,4452,4946,2222,847,2219
"492","Croatia",NA,NA,NA,NA,NA,NA,NA,NA,NA,NA,NA,NA,NA,NA,NA,NA,NA,NA,NA,NA,NA,15716,51640,518601,449804,2904593,2517904,1181145,8857821,16366409
"502","Mexico",NA,NA,NA,NA,NA,NA,NA,NA,NA,NA,NA,NA,NA,NA,NA,NA,NA,NA,NA,NA,NA,1372,NA,NA,NA,236,NA,NA,NA,NA
"508","Romania",NA,NA,NA,NA,NA,NA,NA,NA,NA,NA,NA,NA,NA,NA,NA,NA,NA,NA,NA,NA,4947425,3694208,5306122,9381490,12812555,18153691,22381030,11722876,16345469,16005597
"518","United Arab Emirates",NA,NA,NA,NA,NA,NA,NA,NA,NA,NA,NA,NA,NA,NA,NA,NA,NA,NA,NA,NA,NA,102,NA,NA,55,NA,NA,NA,NA,NA
"522","United Rep. of Tanzania",NA,NA,NA,NA,NA,NA,NA,NA,NA,NA,NA,NA,NA,NA,NA,NA,NA,NA,NA,NA,NA,68,NA,NA,NA,NA,NA,NA,NA,NA
"525","Venezuela",NA,NA,NA,NA,NA,NA,NA,NA,NA,NA,NA,NA,NA,NA,NA,NA,NA,NA,NA,NA,NA,8,NA,NA,NA,NA,NA,NA,NA,NA
"539","Benin",NA,NA,NA,NA,NA,NA,NA,NA,NA,NA,NA,NA,NA,NA,NA,NA,NA,NA,NA,NA,NA,NA,1,NA,NA,NA,NA,NA,NA,NA
"542","Estonia",NA,NA,NA,NA,NA,NA,NA,NA,NA,NA,NA,NA,NA,NA,NA,NA,NA,NA,NA,NA,NA,NA,100,15145,NA,NA,NA,NA,NA,NA
"544","Djibouti",NA,NA,NA,NA,NA,NA,NA,NA,NA,NA,NA,NA,NA,NA,NA,NA,NA,NA,NA,NA,NA,NA,644,NA,NA,NA,854,NA,NA,NA
"545","Honduras",NA,NA,NA,NA,NA,NA,NA,NA,NA,NA,NA,NA,NA,NA,NA,NA,NA,NA,NA,NA,NA,NA,286,NA,NA,NA,NA,NA,NA,NA
"549","Iran",NA,NA,NA,NA,NA,NA,NA,NA,NA,NA,NA,NA,NA,NA,NA,NA,NA,NA,NA,NA,NA,NA,2938,NA,NA,8078,15922,16342,21746,41171
"557","Rep. of Moldova",NA,NA,NA,NA,NA,NA,NA,NA,NA,NA,NA,NA,NA,NA,NA,NA,NA,NA,NA,3,NA,NA,39,62,108,26,NA,495149,29,NA
"616","Slovenia",NA,NA,NA,NA,NA,NA,NA,NA,NA,NA,NA,NA,NA,NA,NA,NA,NA,NA,NA,NA,NA,NA,NA,14280,NA,NA,NA,NA,NA,NA
"702","Ecuador",NA,NA,NA,NA,NA,NA,NA,NA,NA,NA,NA,NA,NA,NA,NA,NA,NA,NA,NA,NA,NA,NA,NA,NA,303572,NA,2872,NA,2878,1787
"745","Finland",NA,NA,NA,NA,NA,NA,NA,NA,NA,NA,NA,NA,NA,NA,NA,NA,NA,NA,NA,NA,NA,NA,NA,NA,NA,NA,NA,26772,NA,NA
"783","Bangladesh",NA,NA,NA,NA,NA,NA,NA,NA,NA,NA,NA,NA,NA,NA,NA,NA,NA,NA,NA,NA,NA,NA,NA,NA,NA,NA,NA,NA,76248,NA
"808","Mali",NA,NA,NA,NA,NA,NA,NA,NA,NA,NA,NA,NA,NA,NA,NA,NA,NA,NA,NA,NA,NA,NA,NA,NA,NA,NA,NA,NA,6849,NA
"888","Bulgaria",NA,NA,NA,NA,NA,NA,NA,NA,NA,NA,NA,NA,NA,NA,NA,NA,NA,NA,NA,NA,NA,NA,NA,NA,NA,34614,NA,NA,NA,18932
"929","Togo",NA,NA,NA,NA,NA,NA,NA,NA,NA,NA,NA,NA,NA,NA,NA,NA,NA,NA,NA,NA,NA,NA,NA,NA,NA,157108,NA,NA,NA,69164
"954","Ireland",NA,NA,NA,NA,NA,NA,NA,NA,NA,NA,NA,NA,NA,NA,NA,NA,NA,NA,NA,NA,NA,NA,NA,NA,NA,NA,NA,NA,NA,876
"960","Lebanon",NA,NA,NA,NA,NA,NA,NA,NA,NA,NA,NA,NA,NA,NA,NA,NA,NA,NA,NA,NA,NA,NA,NA,NA,NA,NA,NA,NA,NA,1580
